\relax 
\providecommand*\new@tpo@label[2]{}
\@writefile{toc}{\contentsline {section}{\numberline {1}User Documentation}{2}}
\@writefile{toc}{\contentsline {section}{\numberline {2}Security Documentation}{3}}
\@writefile{toc}{\contentsline {section}{\numberline {3}Schema Normalization Analysis}{3}}
\@writefile{toc}{\contentsline {section}{\numberline {4}ER Diagram}{6}}
\@writefile{toc}{\contentsline {section}{\numberline {5}Team Responsibilites}{8}}
\global\@namedef{scr@dte@section@lastmaxnumwidth}{11.87997pt}
