\contentsline {section}{\numberline {1}User Documentation}{2}
\contentsline {section}{\numberline {2}Security Documentation}{3}
\contentsline {section}{\numberline {3}Schema Normalization Analysis}{3}
\contentsline {section}{\numberline {4}ER Diagram}{6}
\contentsline {section}{\numberline {5}Team Responsibilites}{8}
